{"count":3311,"page":1,"page_count":10,"page_size":10,"products":[{"brands":"Beypazarı","code":"8691381000486","product_name":"BEYPAZARI SADE SODA"},{"brands":"Ülker","code":"8690504135913","product_name":"ülker Çikolatalı Gofret"},{"brands":"Eti","code":"8690526069500","product_name":"Lifalif"},{"brands":"Nutella,Ferrero","code":"80135876","product_name":"Nutella 400g"},{"brands":"nutella,Ferrero","code":"80176800","product_name":"Nutella"},{"brands":"Ulker, Ülker","code":"8690504017301","product_name":"Çubuk kareler 40 g"},{"brands":"Dost","code":"8695077004369","product_name":"Dost Doğal yoğurt"},{"brands":"Baktat","code":"86935241","product_name":"ayran"},{"brands":"Eti","code":"8690526063508","product_name":"Burçak Milk Chocolate Biscuits"},{"brands":"Ülker","code":"8690504011521","product_name":"Altınbaşak tahıl cipsi"}],"skip":0}